Challenge 4
…
Code

# Code for question 1! 
avocado <- read_csv(here::here("supporting_artifacts", 
                               "extended_learning", 
                               "Challenge 4",
                               "avocado.csv"))

Code

avocado |>
    distinct(region, keep_all = TRUE)

# A tibble: 54 × 2
   region              keep_all
   <chr>               <lgl>   
 1 Albany              TRUE    
 2 Atlanta             TRUE    
 3 BaltimoreWashington TRUE    
 4 Boise               TRUE    
 5 Boston              TRUE    
 6 BuffaloRochester    TRUE    
 7 California          TRUE    
 8 Charlotte           TRUE    
 9 Chicago             TRUE    
10 CincinnatiDayton    TRUE    
# … with 44 more rows
…
